{
  "rabbit_version": "3.8.9",
  "users": [
    {
      "name": "rabbit",
      "password_hash": "D37D96B42AD43384915E4513505C30C0B1C4E7C765B5577EDA25B5DBD7F26D89",
      "hashing_algorithm": "rabbit_password_hashing_sha256",
      "tags": "administrator"
    }
  ],
  "vhosts": [
    {
      "name": "/"
    }
  ],
  "permissions": [
    {
      "user": "rabbit",
      "vhost": "/",
      "configure": ".*",
      "write": ".*",
      "read": ".*"
    }
  ],
  "topic_permissions": [],
  "parameters": [],
  "global_parameters": [
    {
      "name": "cluster_name",
      "value": "rabbit@my-rabbit"
    }
  ],
  "policies": [],
  "queues": [
    {
      "name": "hello-world-queue",
      "vhost": "/",
      "durable": true,
      "auto_delete": false,
      "arguments": {}
    }
  ],
  "exchanges": [],
  "bindings": []
}